{
	"folders": {},
	"connections": {
		"oracle_thin-16fd7b978d3-3c542a438350208f": {
			"provider": "oracle",
			"driver": "oracle_thin",
			"name": "Oracle - im2ag",
			"save-password": true,
			"read-only": false,
			"configuration": {
				"host": "im2ag-oracle.e.ujf-grenoble.fr",
				"port": "1521",
				"database": "im2ag",
				"url": "jdbc:oracle:thin:@im2ag-oracle.e.ujf-grenoble.fr:1521:im2ag",
				"type": "dev",
				"provider-properties": {
					"@dbeaver-always-use-dba-views@": "false",
					"@dbeaver-sid-service@": "SID",
					"@dbeaver-meta-use-simple-constraints@": "false",
					"@dbeaver-use-rule-hint@": "false",
					"@dbeaver-use-meta-optimizer@": "false",
					"@dbeaver-connection-type@": "BASIC",
					"@dbeaver-check-schema-content@": "false",
					"@dbeaver-meta-use-sys-schema@": "false",
					"@dbeaver-always-show-dba@": "false"
				},
				"handlers": {}
			}
		},
		"oracle_thin-16fd7cca4a1-4db561464bc4ccb6": {
			"provider": "oracle",
			"driver": "oracle_thin",
			"name": "Oracle - im2ag 2",
			"save-password": true,
			"read-only": false,
			"configuration": {
				"host": "im2ag-oracle.e.ujf-grenoble.fr",
				"port": "1521",
				"database": "im2ag",
				"url": "jdbc:oracle:thin:@im2ag-oracle.e.ujf-grenoble.fr:1521:im2ag",
				"type": "dev",
				"provider-properties": {
					"@dbeaver-always-use-dba-views@": "false",
					"@dbeaver-sid-service@": "SID",
					"@dbeaver-meta-use-simple-constraints@": "false",
					"@dbeaver-use-rule-hint@": "false",
					"@dbeaver-use-meta-optimizer@": "false",
					"@dbeaver-connection-type@": "BASIC",
					"@dbeaver-check-schema-content@": "false",
					"@dbeaver-meta-use-sys-schema@": "false",
					"@dbeaver-always-show-dba@": "false"
				},
				"handlers": {}
			}
		}
	},
	"connection-types": {
		"dev": {
			"name": "Development",
			"color": "255,255,255",
			"description": "Regular development database",
			"auto-commit": true,
			"confirm-execute": false,
			"confirm-data-change": false
		}
	}
}